<?xml version="1.0" encoding="utf-8"?>
<!-- Generator: Adobe Illustrator 16.0.4, SVG Export Plug-In . SVG Version: 6.00 Build 0)  -->
<!DOCTYPE svg PUBLIC "-//W3C//DTD SVG 1.1//EN" "http://www.w3.org/Graphics/SVG/1.1/DTD/svg11.dtd">
<svg version="1.1" id="Layer_1" xmlns="http://www.w3.org/2000/svg" xmlns:xlink="http://www.w3.org/1999/xlink" x="0px" y="0px"
	 width="475.277px" height="301.5px" viewBox="0.5 -0.29 475.277 301.5" enable-background="new 0.5 -0.29 475.277 301.5"
	 xml:space="preserve">
<polygon opacity="0.2" fill="#002855" points="168.389,149.71 76.898,301.21 149.645,301.21 240.889,149.71 "/>
<polygon opacity="0.2" fill="#002855" points="103.204,-0.29 0.5,169.778 0.5,301.21 63.07,301.21 244.656,-0.29 "/>
<polygon opacity="0.2" fill="#EAAA00" points="420.389,113.21 475.777,21.244 475.777,-0.29 437.931,-0.29 369.389,113.21 "/>
</svg>
