<?xml version="1.0" encoding="utf-8"?>
<!-- Generator: Adobe Illustrator 16.0.4, SVG Export Plug-In . SVG Version: 6.00 Build 0)  -->
<!DOCTYPE svg PUBLIC "-//W3C//DTD SVG 1.1//EN" "http://www.w3.org/Graphics/SVG/1.1/DTD/svg11.dtd">
<svg version="1.1" id="Layer_1" xmlns="http://www.w3.org/2000/svg" xmlns:xlink="http://www.w3.org/1999/xlink" x="0px" y="0px"
	 width="619.752px" height="387px" viewBox="-109.361 -35.25 619.752 387" enable-background="new -109.361 -35.25 619.752 387"
	 xml:space="preserve">
<polygon fill="#002855" enable-background="new    " points="168.389,149.71 76.898,301.21 149.645,301.21 240.889,149.71 "/>
<polygon fill="#002855" enable-background="new    " points="33.639,351.75 244.656,-0.29 103.204,-0.29 -109.361,351.25 "/>
<polygon fill="#EAAA00" enable-background="new    " points="459.139,-35.25 369.389,113.21 420.389,113.21 510.391,-35.25 "/>
</svg>
